{
	"toggles": {
		"overview": [
			{ "id": "agility",				"name": "Agility shortcuts" },
			{ "id": "boats",				"name": "Boats" },
			{ "id": "fairy-rings",			"name": "Fairy rings" },
			{ "id": "gnome-gliders",		"name": "Gnome gliders" },
			{ "id": "magic-carpet",			"name": "Magic carpet" },
			{ "id": "mine-carts",			"name": "Mine carts" },
			{ "id": "spirit-tree",			"name": "Spirit tree" },
			{ "id": "jewellery",			"name": "Jewellery" },
			{ "id": "skilling-outfits",		"name": "Skilling outfits",	"default": false },
			{ "id": "slayer-masks",			"name": "Slayer masks" },
			{ "id": "tasks-rewards",		"name": "Tasks rewards" },
			{ "id": "teleport-tablets",		"name": "Teleport tablets",	"default": false },
			{ "id": "teleport-scrolls",		"name": "Teleport scrolls",	"default": false },
			{ "id": "teleport-spells",		"name": "Teleport spells" }
		],
		"gnomeGliders": [
			{ "id": "ta-quir-priw",			"name": "Ta Quir Priw",			"location": "The Grand Tree" },
			{ "id": "sindarpos",			"name": "Sindarpos",			"location": "The peak of White Wolf Mountain" },
			{ "id": "lemanto-andra",		"name": "Lemanto Andra",		"location": "Just west of the Digsite near Varrock" },
			{ "id": "kar-hewo",				"name": "Kar-Hewo",				"location": "Al Kharid" },
			{ "id": "gandius",				"name": "Gandius",				"location": "On Karamja, south of the ship yard",	"default": false },
			{ "id": "lemantolly-undri",		"name": "Lemantolly Undri",		"location": "Western Feldip Hills" },
			{ "id": "priw-gnomo-andralo",	"name": "Priw Gnomo Andralo",	"location": "Outside the Tree Gnome Village maze" },
			{ "id": "dylandra",				"name": "Dylandra",				"location": "The Meilyr Clan district of Prifddinas",	"default": false },
			{ "id": "kai-undri",			"name": "Kai-Undri",			"location": "The Tuai Leit gnome colony",	"default": false }
		]
	}
}